<?xml version="1.0" standalone="no"?>
<!DOCTYPE svg PUBLIC "-//W3C//DTD SVG 20010904//EN"
 "http://www.w3.org/TR/2001/REC-SVG-20010904/DTD/svg10.dtd">
<svg version="1.0" xmlns="http://www.w3.org/2000/svg"
 width="200.000000pt" height="200.000000pt" viewBox="0 0 200.000000 200.000000"
 preserveAspectRatio="xMidYMid meet">
<metadata>
Created by potrace 1.11, written by Peter Selinger 2001-2013
</metadata>
<g transform="translate(0.000000,200.000000) scale(0.100000,-0.100000)"
fill="#000000" stroke="none">
<path d="M360 1677 c-14 -7 -29 -26 -35 -43 -6 -19 -10 -256 -9 -633 1 -647 1
-645 53 -658 35 -9 1195 -8 1209 1 7 4 12 11 12 16 0 5 -49 58 -108 118 l-108
109 -71 -1 c-66 -1 -74 1 -102 28 -55 53 -61 121 -15 183 85 113 273 19 234
-117 -6 -19 -10 -36 -10 -37 0 -1 49 -52 109 -114 75 -76 115 -110 128 -107
17 3 18 31 21 598 2 633 2 643 -45 661 -13 5 -132 9 -264 9 l-240 0 -149 -149
-150 -149 6 -58 c4 -48 2 -65 -15 -91 -51 -81 -150 -92 -216 -23 -54 57 -40
160 28 205 26 17 88 22 125 10 21 -7 38 6 134 104 67 70 108 119 106 129 -3
15 -32 17 -303 19 -227 2 -306 0 -325 -10z m1001 -253 c15 -7 37 -34 49 -58
28 -58 20 -106 -25 -151 -38 -37 -85 -49 -135 -35 l-35 10 -201 -201 -201
-201 11 -39 c23 -86 -40 -169 -128 -169 -103 0 -166 101 -121 193 26 54 61 72
137 72 l68 0 195 195 c156 155 195 199 190 215 -13 44 -13 55 -4 88 24 89 113
125 200 81z"/>
<path d="M1252 1348 c-32 -32 -3 -92 42 -86 40 4 59 35 43 68 -14 28 -64 39
-85 18z"/>
<path d="M661 751 c-12 -12 -21 -27 -21 -34 0 -24 31 -57 55 -57 23 0 55 32
55 55 0 18 -23 43 -47 50 -15 4 -28 0 -42 -14z"/>
<path d="M656 1344 c-28 -27 -19 -62 20 -82 18 -10 27 -8 48 9 31 24 33 49 8
72 -23 21 -56 22 -76 1z"/>
<path d="M1261 753 c-25 -17 -27 -55 -5 -77 31 -32 84 -11 84 33 0 47 -42 71
-79 44z"/>
</g>
</svg>
